<?xml version="1.0" encoding="utf-8"?>
<!-- Generator: Adobe Illustrator 19.2.1, SVG Export Plug-In . SVG Version: 6.00 Build 0)  -->
<svg version="1.1" id="Layer_1" xmlns="http://www.w3.org/2000/svg" xmlns:xlink="http://www.w3.org/1999/xlink" x="0px" y="0px"
	 viewBox="0 0 100 100" style="enable-background:new 0 0 100 100;" xml:space="preserve">
<g>
	<polygon points="44.7,28.8 37.6,35.9 51.8,50 37.6,64.1 44.7,71.2 65.9,50 	" fill="#ffffff"/>
	<path d="M95,50C95,25.2,74.8,5,50,5S5,25.2,5,50s20.2,45,45,45S95,74.8,95,50z M15,50c0-19.3,15.7-35,35-35s35,15.7,35,35
		S69.3,85,50,85S15,69.3,15,50z" fill="#ffffff"/>
</g>
</svg>
